USP 634 Lab 3- Some R Basics
…
We will calculate z-scores using the formula. In order to do so we will use R just as we would use a spreadsheet, creating new variables as we go, and then applying the formula using the new variables weve created along the way.

The z-score for each individual observation of a variable is computed in a similar fashion: the value for that observation minus a constant (the variables mean), and then divided by another constant (the variables standard deviation).

This is the z-score formula we just described above:

\[z = \frac{x - \bar{x}}{s}\]

For our variable density, which lists the density for each TOD site, you could create a new variable in R called z_density which would contain the z-score for the density variable. We would use this formula:

californiatod$z_density <- (californiatod$density - mean(californiatod$density))/sd(californiatod$density)

californiatod %>% print()

## # A tibble: 26 x 7
##    name            region  transit density houseval railtype     z_density
##    <chr>           <chr>     <dbl>   <dbl>    <dbl> <chr>            <dbl>
##  1 Archstone Barr Bay Ar   0.400    3.36  192593. Heavy or co   -0.566 
##  2 Archstone Miss SD        0.108    2.18  203055. Light rail     -0.901 
##  3 Atherton Place  Bay Ar   0.500    5.21  217672. Heavy or co   -0.0425
##  4 Bellamar Apart LA        0.318   10.1   117256. Light rail      1.33  
##  5 Coggins Square  Bay Ar   0.528    4.68  270555. Heavy or co   -0.193 
##  6 Del Norte Place Bay Ar   0.643    4.91  229336. Heavy or co   -0.127 
##  7 Iron Horse Lof Bay Ar   0.606    4.68  270207. Heavy or co   -0.193 
##  8 Mercado Apartm SD        0.       3.21  121786. Light rail     -0.609 
##  9 Mission Wells   Bay Ar   0.147    3.96  323497. Heavy or co   -0.396 
## 10 Northpark Apar Bay Ar   0.174    3.27  667661. Heavy or co   -0.592 
## # ... with 16 more rows
…
